5 2 8 100
30.7558 173.003 1034.8
69.2327 22.9877 997.58
136.845 135.454 1003.73
119.987 6.41661 991.18
149.29 164.685 1025.97
0 177.294 11081.7
93.8579 0 9966.67
200 153.964 10344
135.454 200 10037.3
0 43.9608 9911.8
149.29 0 10236
67.1167 200 10541.2
53.7177 0 11092
